,date,city,rent,product
0,2022-01-01,Sivas,10,1008
1,2022-01-02,Ardahan,12,1850
2,2022-01-03,Edirne,3,1648
3,2022-01-04,Edirne,15,1638
4,2022-01-05,Yozgat,6,1673
5,2022-01-06,Bingöl,12,1786
6,2022-01-07,Kırıkkale,6,1058
7,2022-01-08,Ağrı,12,1501
8,2022-01-09,Malatya,16,1483
9,2022-01-10,Kırşehir,8,1063
10,2022-01-11,Düzce,7,1820
11,2022-01-12,Yozgat,3,1694
12,2022-01-13,Ordu,12,1747
13,2022-01-14,Denizli,17,1269
14,2022-01-15,Burdur,12,1048
15,2022-01-16,Zonguldak,6,1169
16,2022-01-17,Eskişehir,2,1473
17,2022-01-18,Malatya,14,1922
18,2022-01-19,Balıkesir,6,1452
19,2022-01-20,Eskişehir,4,1443
20,2022-01-21,İçel (Mersin),1,1492
21,2022-01-22,Kayseri,5,1868
22,2022-01-23,Bayburt,1,1273
23,2022-01-24,Kırşehir,14,1641
24,2022-01-25,Şanlıurfa,13,1540
25,2022-01-26,Kastamonu,2,1538
26,2022-01-27,Burdur,3,1002
27,2022-01-28,Osmaniye,1,1228
28,2022-01-29,İstanbul,5,1201
29,2022-01-30,Çankırı,9,1227
30,2022-01-31,Tekirdağ,8,1910
31,2022-02-01,Denizli,9,1065
32,2022-02-02,İstanbul,3,1607
33,2022-02-03,Sakarya,5,1335
34,2022-02-04,Bilecik,2,1604
35,2022-02-05,Tokat,14,1801
36,2022-02-06,Antalya,11,1892
37,2022-02-07,Kastamonu,2,1549
38,2022-02-08,Bitlis,9,1615
39,2022-02-09,Karaman,1,1892
40,2022-02-10,Karabük,15,1746
41,2022-02-11,Ardahan,11,1396
42,2022-02-12,Şanlıurfa,11,1652
43,2022-02-13,Denizli,8,1554
44,2022-02-14,Isparta,1,1804
45,2022-02-15,Ardahan,14,1583
46,2022-02-16,Zonguldak,14,1405
47,2022-02-17,Tekirdağ,14,1654
48,2022-02-18,Çankırı,8,1918
49,2022-02-19,Karabük,9,1531
50,2022-02-20,Şırnak,14,1695
51,2022-02-21,Adana,3,1535
52,2022-02-22,Uşak,7,1406
53,2022-02-23,Erzincan,3,1390
54,2022-02-24,Yalova,15,1103
55,2022-02-25,Siirt,5,1093
56,2022-02-26,Kastamonu,3,1101
57,2022-02-27,İzmir,7,1930
58,2022-02-28,Kırşehir,3,1662
59,2022-03-01,Samsun,4,1580
60,2022-03-02,Karaman,1,1648
61,2022-03-03,Kocaeli,3,1345
62,2022-03-04,Siirt,3,1576
63,2022-03-05,Osmaniye,11,1454
64,2022-03-06,Çorum,2,1276
65,2022-03-07,Hakkari,14,1294
66,2022-03-08,Iğdır,8,1185
67,2022-03-09,Yozgat,13,1340
68,2022-03-10,Bartın,15,1463
69,2022-03-11,Nevşehir,10,1659
70,2022-03-12,Diyarbakır,15,1384
71,2022-03-13,Sakarya,17,1193
72,2022-03-14,Sakarya,2,1075
73,2022-03-15,Ardahan,2,1198
74,2022-03-16,Çanakkale,9,1196
75,2022-03-17,Manisa,17,1178
76,2022-03-18,Batman,3,1748
77,2022-03-19,İçel (Mersin),13,1409
78,2022-03-20,İçel (Mersin),7,1200
79,2022-03-21,Samsun,6,1300
80,2022-03-22,Edirne,8,1908
81,2022-03-23,Uşak,17,1157
82,2022-03-24,Sinop,7,1280
83,2022-03-25,Muş,11,1669
84,2022-03-26,Eskişehir,14,1175
85,2022-03-27,Malatya,4,1145
86,2022-03-28,Ordu,15,1624
87,2022-03-29,Aksaray,8,1433
88,2022-03-30,Sinop,14,1650
89,2022-03-31,Kars,12,1490
90,2022-04-01,Kırşehir,10,1884
91,2022-04-02,Bartın,7,1294
92,2022-04-03,Karaman,7,1155
93,2022-04-04,Zonguldak,12,1050
94,2022-04-05,Artvin,17,1061
95,2022-04-06,Nevşehir,2,1761
96,2022-04-07,Balıkesir,9,1762
97,2022-04-08,Kilis,1,1971
98,2022-04-09,Aydın,5,1587
99,2022-04-10,Denizli,3,1318
100,2022-04-11,Edirne,3,1368
101,2022-04-12,Artvin,11,1338
102,2022-04-13,Karaman,9,1633
103,2022-04-14,Samsun,8,1576
104,2022-04-15,Diyarbakır,14,1201
105,2022-04-16,Kayseri,4,1164
106,2022-04-17,İzmir,16,1028
107,2022-04-18,Muğla,12,1382
108,2022-04-19,Bitlis,12,1129
109,2022-04-20,Afyon,13,1957
110,2022-04-21,Van,13,1531
111,2022-04-22,Burdur,4,1328
112,2022-04-23,Batman,6,1661
113,2022-04-24,Şırnak,9,1105
114,2022-04-25,Sinop,15,1100
115,2022-04-26,Şırnak,9,1684
116,2022-04-27,Bayburt,12,1073
117,2022-04-28,Sivas,3,1372
118,2022-04-29,Bingöl,12,1262
119,2022-04-30,Elazığ,17,1815
120,2022-05-01,Uşak,16,1267
121,2022-05-02,Çorum,12,1462
122,2022-05-03,Mardin,4,1335
123,2022-05-04,Denizli,15,1246
124,2022-05-05,İzmir,17,1842
125,2022-05-06,Kırklareli,6,1326
126,2022-05-07,Trabzon,10,1027
127,2022-05-08,Konya,13,1551
128,2022-05-09,Hatay,1,1262
129,2022-05-10,Bingöl,2,1347
130,2022-05-11,Sivas,8,1090
131,2022-05-12,Yozgat,2,1254
132,2022-05-13,Mardin,4,1850
133,2022-05-14,Edirne,7,1211
134,2022-05-15,Osmaniye,11,1865
135,2022-05-16,İzmir,1,1356
136,2022-05-17,Iğdır,9,1167
137,2022-05-18,Tekirdağ,13,1898
138,2022-05-19,Osmaniye,4,1658
139,2022-05-20,Tunceli,9,1295
140,2022-05-21,Gaziantep,12,1631
141,2022-05-22,Kırıkkale,4,1266
142,2022-05-23,Bitlis,8,1168
143,2022-05-24,Bayburt,4,1801
144,2022-05-25,Mardin,8,1230
145,2022-05-26,Düzce,2,1177
146,2022-05-27,Gaziantep,8,1147
147,2022-05-28,Kahramanmaraş,9,1676
148,2022-05-29,Tunceli,1,1643
149,2022-05-30,Mardin,12,1492
150,2022-05-31,Eskişehir,13,1878
151,2022-06-01,Sivas,17,1411
152,2022-06-02,Burdur,14,1602
153,2022-06-03,Bartın,10,1904
154,2022-06-04,Siirt,17,1011
155,2022-06-05,Ankara,1,1756
156,2022-06-06,Bingöl,10,1320
157,2022-06-07,Şırnak,2,1820
158,2022-06-08,Isparta,8,1414
159,2022-06-09,Mardin,17,1648
160,2022-06-10,Kilis,14,1750
161,2022-06-11,Ağrı,11,1705
162,2022-06-12,Mardin,5,1183
163,2022-06-13,Erzincan,10,1713
164,2022-06-14,Yozgat,17,1299
165,2022-06-15,Osmaniye,8,1547
166,2022-06-16,Malatya,1,1423
167,2022-06-17,Erzincan,3,1788
168,2022-06-18,Karaman,9,1045
169,2022-06-19,Uşak,10,1411
170,2022-06-20,Zonguldak,7,1235
171,2022-06-21,İçel (Mersin),6,1182
172,2022-06-22,Kırıkkale,16,1762
173,2022-06-23,Iğdır,13,1744
174,2022-06-24,Karabük,2,1014
175,2022-06-25,Eskişehir,16,1022
176,2022-06-26,Edirne,7,1630
177,2022-06-27,Samsun,3,1258
178,2022-06-28,Nevşehir,15,1704
179,2022-06-29,Kayseri,14,1635
180,2022-06-30,Giresun,1,1928
181,2022-07-01,Ardahan,14,1798
182,2022-07-02,Ordu,14,1010
183,2022-07-03,Osmaniye,7,1143
184,2022-07-04,Denizli,1,1258
185,2022-07-05,Zonguldak,8,1504
186,2022-07-06,Bingöl,12,1028
187,2022-07-07,Bingöl,9,1423
188,2022-07-08,Bingöl,17,1820
189,2022-07-09,Eskişehir,9,1548
190,2022-07-10,Muğla,8,1315
191,2022-07-11,Bartın,2,1170
192,2022-07-12,Balıkesir,10,1931
193,2022-07-13,Kocaeli,15,1151
194,2022-07-14,Aksaray,12,1813
195,2022-07-15,Karabük,15,1700
196,2022-07-16,Ardahan,14,1471
197,2022-07-17,İçel (Mersin),1,1054
198,2022-07-18,Muğla,1,1563
199,2022-07-19,Artvin,17,1272
200,2022-07-20,Uşak,4,1186
201,2022-07-21,İçel (Mersin),5,1288
202,2022-07-22,Bolu,8,1983
203,2022-07-23,Aydın,9,1567
204,2022-07-24,Kütahya,8,1086
205,2022-07-25,Gaziantep,12,1740
206,2022-07-26,Sakarya,8,1271
207,2022-07-27,Çorum,12,1754
208,2022-07-28,Kırıkkale,2,1135
209,2022-07-29,Uşak,1,1513
210,2022-07-30,Iğdır,1,1252
211,2022-07-31,Sinop,1,1121
212,2022-08-01,Giresun,9,1419
213,2022-08-02,Adıyaman,2,1310
214,2022-08-03,Bilecik,11,1066
215,2022-08-04,Kars,17,1816
216,2022-08-05,Denizli,1,1282
217,2022-08-06,Hakkari,13,1207
218,2022-08-07,Adıyaman,10,1548
219,2022-08-08,Ardahan,12,1083
220,2022-08-09,Kahramanmaraş,15,1872
221,2022-08-10,Bingöl,15,1470
222,2022-08-11,Şırnak,17,1269
223,2022-08-12,İçel (Mersin),15,1018
224,2022-08-13,Isparta,7,1363
225,2022-08-14,Giresun,10,1017
226,2022-08-15,Şanlıurfa,13,1260
227,2022-08-16,Kütahya,5,1451
228,2022-08-17,Konya,7,1443
229,2022-08-18,Kahramanmaraş,14,1403
230,2022-08-19,Erzincan,9,1395
231,2022-08-20,Ankara,6,1143
232,2022-08-21,Iğdır,5,1150
233,2022-08-22,Sakarya,10,1488
234,2022-08-23,Samsun,8,1648
235,2022-08-24,Karaman,4,1782
236,2022-08-25,Ağrı,3,1824
237,2022-08-26,Tokat,9,1689
238,2022-08-27,Artvin,10,1974
239,2022-08-28,Kırıkkale,12,1138
240,2022-08-29,Çanakkale,13,1316
241,2022-08-30,Sivas,12,1985
242,2022-08-31,Sivas,9,1206
243,2022-09-01,Antalya,6,1383
244,2022-09-02,Batman,13,1426
245,2022-09-03,Mardin,3,1448
246,2022-09-04,Rize,2,1054
247,2022-09-05,Hakkari,15,1186
248,2022-09-06,Bolu,9,1238
249,2022-09-07,Eskişehir,4,1658
250,2022-09-08,Ağrı,5,1475
251,2022-09-09,Samsun,4,1234
252,2022-09-10,Zonguldak,5,1883
253,2022-09-11,Sakarya,5,1876
254,2022-09-12,Mardin,1,1177
255,2022-09-13,Çanakkale,10,1013
256,2022-09-14,Kırıkkale,3,1687
257,2022-09-15,Denizli,11,1114
258,2022-09-16,Denizli,9,1114
259,2022-09-17,Çorum,11,1044
260,2022-09-18,Çorum,8,1267
261,2022-09-19,Kocaeli,7,1161
262,2022-09-20,Denizli,13,1326
263,2022-09-21,Yalova,9,1152
264,2022-09-22,Malatya,10,1231
265,2022-09-23,Aksaray,5,1343
266,2022-09-24,Ordu,14,1963
267,2022-09-25,Uşak,6,1561
268,2022-09-26,Muğla,7,1647
269,2022-09-27,Ardahan,15,1934
270,2022-09-28,Iğdır,8,1084
271,2022-09-29,Kırklareli,8,1684
272,2022-09-30,Tokat,14,1640
273,2022-10-01,Şanlıurfa,15,1118
274,2022-10-02,Bingöl,11,1192
275,2022-10-03,Kırıkkale,13,1800
276,2022-10-04,Kastamonu,11,1406
277,2022-10-05,Malatya,1,1004
278,2022-10-06,Ankara,16,1167
279,2022-10-07,Nevşehir,8,1560
280,2022-10-08,Malatya,12,1887
281,2022-10-09,Tekirdağ,8,1048
282,2022-10-10,Kahramanmaraş,11,1319
283,2022-10-11,Osmaniye,3,1329
284,2022-10-12,Ordu,5,1123
285,2022-10-13,Amasya,4,1843
286,2022-10-14,Balıkesir,8,1344
287,2022-10-15,Hakkari,15,1277
288,2022-10-16,Denizli,9,1853
289,2022-10-17,Osmaniye,2,1714
290,2022-10-18,Denizli,12,1435
291,2022-10-19,Çanakkale,17,1866
292,2022-10-20,Düzce,4,1916
293,2022-10-21,Kahramanmaraş,5,1354
294,2022-10-22,Çanakkale,7,1300
295,2022-10-23,Kırşehir,10,1960
296,2022-10-24,Şanlıurfa,2,1131
297,2022-10-25,Elazığ,5,1123
298,2022-10-26,Erzincan,11,1031
299,2022-10-27,Aksaray,15,1699
300,2022-10-28,Erzincan,8,1334
301,2022-10-29,Sinop,17,1722
302,2022-10-30,Trabzon,3,1799
303,2022-10-31,Artvin,16,1131
304,2022-11-01,İstanbul,17,1454
305,2022-11-02,Kütahya,2,1562
306,2022-11-03,Şırnak,13,1668
307,2022-11-04,Tokat,10,1497
308,2022-11-05,Bayburt,13,1395
309,2022-11-06,Antalya,4,1687
310,2022-11-07,Düzce,11,1793
311,2022-11-08,Artvin,14,1273
312,2022-11-09,Balıkesir,13,1456
313,2022-11-10,İstanbul,1,1663
314,2022-11-11,Batman,14,1675
315,2022-11-12,Eskişehir,16,1872
316,2022-11-13,Ankara,10,1241
317,2022-11-14,Van,3,1258
318,2022-11-15,Denizli,17,1558
319,2022-11-16,Ankara,15,1236
320,2022-11-17,Elazığ,6,1866
321,2022-11-18,Burdur,14,1830
322,2022-11-19,Hatay,10,1244
323,2022-11-20,Nevşehir,17,1138
324,2022-11-21,Zonguldak,1,1830
325,2022-11-22,Hakkari,10,1356
326,2022-11-23,Muş,14,1180
327,2022-11-24,Diyarbakır,7,1219
328,2022-11-25,Tokat,16,1351
329,2022-11-26,Afyon,3,1707
330,2022-11-27,Osmaniye,13,1714
331,2022-11-28,Zonguldak,9,1749
332,2022-11-29,Bingöl,1,1136
333,2022-11-30,Kırıkkale,14,1922
334,2022-12-01,Kahramanmaraş,7,1840
335,2022-12-02,Gümüşhane,9,1780
336,2022-12-03,Gümüşhane,17,1424
337,2022-12-04,Kırıkkale,7,1412
338,2022-12-05,Adıyaman,7,1734
339,2022-12-06,Yozgat,17,1566
340,2022-12-07,Şırnak,1,1770
341,2022-12-08,Muş,11,1719
342,2022-12-09,Bartın,2,1204
343,2022-12-10,Nevşehir,16,1324
344,2022-12-11,Tunceli,3,1026
345,2022-12-12,Diyarbakır,7,1761
346,2022-12-13,Bartın,3,1244
347,2022-12-14,İstanbul,3,1299
348,2022-12-15,Erzincan,8,1156
349,2022-12-16,Nevşehir,11,1309
350,2022-12-17,Iğdır,14,1940
351,2022-12-18,Muğla,2,1366
352,2022-12-19,Bolu,14,1287
353,2022-12-20,Amasya,5,1448
354,2022-12-21,Giresun,9,1509
355,2022-12-22,Amasya,11,1970
356,2022-12-23,Sivas,6,1896
357,2022-12-24,Şanlıurfa,16,1755
358,2022-12-25,Düzce,15,1703
359,2022-12-26,Şırnak,3,1455
360,2022-12-27,Muğla,11,1027
361,2022-12-28,Malatya,17,1595
362,2022-12-29,Diyarbakır,3,1147
363,2022-12-30,Balıkesir,3,1974
